Using ANN To Predict Euthanasia in LMAS Intake
…
Now that we have our prediction on the held-out test data and we know the actuals, we can compare results and diagnose accuracy for our model. This is generally done through a combination of a confusion matrix (a 2x2 matrix of true/false predictions vs true/false actuals), and the area under the receiver operating charactersic (AUC, ROC) curve. This measures the True Positive Rate (TPR) vs. False Positive Rate (FPR) - and the area under is maximized when the model is not sacrificing Sensitivity (TPR) for Specificity (True Negative Rate).

So, let’s first look at the confusion matrix:

# Format prediction and actuals
estimates_euth_tbl <- tibble(
  truth = as.factor(y_euth_test_vec) %>% fct_recode(yes = "1", no = "0"),
  estimate = as.factor(yhat_euth_vec) %>% fct_recode(yes = "1", no = "0"),
  class_prob = yhat_euth_prob_vec %>% percent(2)
)
  
estimates_euth_tbl

## # A tibble: 27,733 x 3
##     truth estimate        class_prob
##    <fctr>   <fctr> <S3: formattable>
##  1    yes      yes           100.00%
##  2    yes      yes           100.00%
##  3    yes      yes           100.00%
##  4    yes      yes           100.00%
##  5     no       no             0.00%
##  6     no       no             0.00%
##  7     no       no             0.00%
##  8     no       no             0.00%
##  9     no       no             0.00%
## 10    yes      yes           100.00%
## # ... with 27,723 more rows
…
Correlation plots show us individual relationships between each input variable and the target variable. This also stands as a good gut check to the feature importance (which, while not explicitly shown in this post, only age shows value when looking at feature importance on select observations).

# Feature correlations to euthanasia
corrr_analysis <- x_euth_train_tbl %>%
    mutate(animal_euth = y_euth_train_vec) %>%
    correlate() %>%
    focus(animal_euth) %>%
    rename(feature = rowname) %>%
    arrange(abs(animal_euth)) %>%
    mutate(feature = as_factor(feature)) 

corrr_analysis %>% arrange(desc(animal_euth))

## # A tibble: 505 x 2
##                                       feature animal_euth
##                                        <fctr>       <dbl>
##  1         ReproductiveStatusAtIntake_UNKNOWN  0.24940454
##  2                             Gender_UNKNOWN  0.24478420
##  3                             AnimalType_CAT  0.20062158
##  4                                Gender_MALE  0.20010301
##  5            PrimaryBreed_DOMESTIC.SHORTHAIR  0.19772939
##  6                        length_of_stay_bin3  0.16384721
##  7                       IntakeReason_unknown  0.16164105
##  8 IntakeAsilomarStatus_UNHEALTHY.UNTREATABLE  0.13953608
##  9                  IntakeInternalStatus_SICK  0.13614263
## 10                 IntakeInternalStatus_FERAL  0.09882999
## # ... with 495 more rows
…
